tdunn - Predicting bike ridership: developing a model
…
So far, I’ve only considered 10 candidate sets of hyperparameters for tuning each tree-based model. Let’s try 100 with XGBoost:

# Get the number of predictors so I can set max number of predictors in `mtry()`
bike_train_baked <- prep(trees_recipe_dummy) %>% bake(bike_train)

# `grid_latin_hypercube()` is a space-filling parameter grid design that will
#  efficiently cover the parameter space for me
xgb_grid <- grid_latin_hypercube(
  finalize(mtry(), select(bike_train_baked, -n_bikes)),
  trees(), min_n(), tree_depth(), learn_rate(),
  size = 100
)
xgb_grid

# A tibble: 100 × 5
    mtry trees min_n tree_depth learn_rate
   <int> <int> <int>      <int>      <dbl>
 1    14   300    20          8   4.27e- 4
 2    30  1560     5         12   2.17e- 5
 3    22  1723    30          2   1.37e- 2
 4     2   268    21          2   6.42e-10
 5     7   780    15         12   1.09e- 5
 6    24   642    24          2   7.51e- 5
 7     3  1066    36          3   8.06e- 9
 8    13   725     4          6   1.94e- 2
 9    18   574    40          9   5.55e- 7
10    27  1988    38         13   7.08e- 9
# … with 90 more rows
# ℹ Use `print(n = ...)` to see more rows
…
