tdunn - Advent of Code 2021: Days 16-20
…
Then it is just a matter of maximizing vy_start such that it lands at the lowest possible point in the target area, i.e. ymin. The highest possible vy_start is the one that will reach ymin in a single step from y = 0, i.e. vy_max = abs(ymin) - 1.

(vy_max <- abs(target_area$ymin) - 1)

[1] 109

To calculate the \(y\) trajectory for this initial velocity, use cumsum:

trajectory <- crossing(vy_max, step = 1:1000) %>%
  mutate(vy = vy_max - step + 1, y = cumsum(vy))
trajectory

# A tibble: 1,000 × 4
   vy_max  step    vy     y
    <dbl> <int> <dbl> <dbl>
 1    109     1   109   109
 2    109     2   108   217
 3    109     3   107   324
 4    109     4   106   430
 5    109     5   105   535
 6    109     6   104   639
 7    109     7   103   742
 8    109     8   102   844
 9    109     9   101   945
10    109    10   100  1045
# … with 990 more rows
…
How many distinct initial velocity values cause the probe to be within the target area after any step?

Find candidate \(y\) velocities, which reach the target area at some step in their trajectories:

vy_candidates <-
  crossing(vy_start = seq(target_area$ymin, vy_max), step = 1:1000) %>%
  mutate(vy = vy_start - step + 1) %>%
  group_by(vy_start) %>%
  mutate(y = cumsum(vy)) %>%
  ungroup() %>%
  filter(between(y, target_area$ymin, target_area$ymax)) %>%
  select(-vy)
vy_candidates

# A tibble: 268 × 3
   vy_start  step     y
      <int> <int> <dbl>
 1     -110     1  -110
 2     -109     1  -109
 3     -108     1  -108
 4     -107     1  -107
 5     -106     1  -106
 6     -105     1  -105
 7     -104     1  -104
 8     -103     1  -103
 9     -102     1  -102
10     -101     1  -101
# … with 258 more rows

There are 192 unique starting \(v_y\) values which will reach the \(y\) target. Do the same for the \(x\) target:

vx_candidates <- 
  crossing(vx_start = 1:target_area$xmax, step = 1:1000) %>%
  mutate(vx = vx_start - step + 1, vx = ifelse(vx < 0, 0, vx)) %>%
  group_by(vx_start) %>%
  mutate(x = cumsum(vx)) %>%
  ungroup() %>%
  filter(between(x, target_area$xmin, target_area$xmax)) %>%
  select(-vx)
vx_candidates

# A tibble: 2,125 × 3
   vx_start  step     x
      <int> <int> <dbl>
 1       18    13   156
 2       18    14   161
 3       18    15   165
 4       18    16   168
 5       18    17   170
 6       18    18   171
 7       18    19   171
 8       18    20   171
 9       18    21   171
10       18    22   171
# … with 2,115 more rows

There are 121 unique starting \(v_x\) values which will reach the \(x\) target.

To determine which combination of \(v_x\) and \(v_y\) are valid, I need to find the combinations that line up in steps taken to reach the target:

vxy_candidates <- vx_candidates %>%
  inner_join(vy_candidates, by = "step") %>%
  filter(!is.na(vx_start), !is.na(vy_start))
vxy_candidates %>%
  group_by(vx_start, vy_start) %>%
  summarise(steps = str_c(step, collapse = ", "), .groups = "drop")

# A tibble: 3,202 × 3
   vx_start vy_start steps     
      <int>    <int> <chr>     
 1       18       -2 13        
 2       18       -1 13, 14    
 3       18        0 13, 14, 15
 4       18        1 14, 15, 16
 5       18        2 15, 16, 17
 6       18        3 16, 17, 18
 7       18        4 18, 19, 20
 8       18        5 19, 20, 21
 9       18        6 20, 21, 22
10       18        7 22, 23, 24
# … with 3,192 more rows
…
Assemble the full map of beacons. How many beacons are there?

input <- day19
scanners <-
  split(input[input != ""], cumsum(input == "")[input != ""]) %>%
  map_dfr(
    function(x) {
      enframe(x[-1], name = "i") %>%
        mutate(scanner = str_extract(x[1], "\\d+") %>% as.integer())
    }
  ) %>%
  separate(value, into = c("x", "y", "z"), sep = ",", convert = TRUE)
scanners

# A tibble: 723 × 5
       i     x     y     z scanner
   <int> <int> <int> <int>   <int>
 1     1   712   493  -580       0
 2     2  -705  -746   944       0
 3     3  -468  -742   927       0
 4     4  -906  -760  -387       0
 5     5   523   612   505       0
 6     6  -973   425  -333       0
 7     7   361  -777  -655       0
 8     8  -172  -143    -8       0
 9     9   403  -606  -574       0
10    10  -655   761   677       0
# … with 713 more rows

I want to generate a “blueprint” for each scanner that uniquely identifies it with relative positions of beacons. To do this, I will compute the pairwise squared distances (\(x^2 + y^2 +z^2\)) between each beacon for a single scanner.

scanners_pair_dist <-
  inner_join(scanners, scanners, by = "scanner", suffix = c("1", "2")) %>%
  filter(i1 != i2) %>%
  mutate(dist2 = (x1 - x2)^2 + (y1 - y2)^2 + (z1 - z2)^2) %>%
  select(scanner, i1, i2, dist2)  
scanners_pair_dist

# A tibble: 17,952 × 4
   scanner    i1    i2   dist2
     <int> <int> <int>   <dbl>
 1       0     1     2 5865586
 2       0     1     3 5188674
 3       0     1     4 4225182
 4       0     1     5 1227107
 5       0     1     6 2904858
 6       0     1     7 1741726
 7       0     1     8 1513136
 8       0     1     9 1303318
 9       0     1    10 3520562
10       0     1    11 5609769
# … with 17,942 more rows
…
             suffix = c("_s1", "_s2")) %>%
  filter(scanner_s1 < scanner_s2) %>%
  pivot_longer(cols = c(i1_s2, i2_s2),
               names_to = "name", values_to = "i_s2") %>%
  count(scanner_s1, scanner_s2, i_s1 = i1_s1, i_s2) %>%
  group_by(scanner_s1, scanner_s2, i_s1) %>%
  slice_max(n) %>%
  ungroup() %>%
  group_by(scanner_s1, scanner_s2) %>%
  filter(n() >= 12) %>%
  ungroup() %>%
  select(-n)
scanners_overlap

# A tibble: 386 × 4
   scanner_s1 scanner_s2  i_s1  i_s2
        <int>      <int> <int> <int>
 1          0         11     2    19
 2          0         11     3     7
 3          0         11     4    22
 4          0         11     6     2
 5          0         11    10     3
 6          0         11    11    25
 7          0         11    14    21
 8          0         11    17    26
 9          0         11    21    17
10          0         11    22    16
# … with 376 more rows

This is where I got stuck. Couldn’t figure out how to reorient the scanners, until I read David Robinson’s solution. I’ll slightly adapt my solution following his code.

First, put each scanner’s beacon positions into a three-column matrix:

scanner_matrices <- scanners %>%
  group_by(scanner) %>%
  summarize(matrix = list(cbind(x, y, z)))
scanner_matrices

# A tibble: 28 × 2
   scanner matrix        
     <int> <list>        
 1       0 <int [26 × 3]>
 2       1 <int [25 × 3]>
 3       2 <int [26 × 3]>
 4       3 <int [26 × 3]>
 5       4 <int [25 × 3]>
 6       5 <int [26 × 3]>
 7       6 <int [26 × 3]>
 8       7 <int [26 × 3]>
 9       8 <int [26 × 3]>
10       9 <int [26 × 3]>
# … with 18 more rows
…
overlap_matrices <- scanners_overlap %>%
  group_by(scanner_s1, scanner_s2) %>%
  summarize(i_s1 = list(i_s1), i_s2 = list(i_s2), .groups = "drop") %>%
  ungroup() %>%
  # Attach the matrix of beacon positions for each scanner
  inner_join(scanner_matrices %>% select(scanner, matrix1 = matrix),
             by = c("scanner_s1" = "scanner")) %>%
  inner_join(scanner_matrices %>% select(scanner, matrix2 = matrix),
             by = c("scanner_s2" = "scanner")) %>%
  # Index the matrices by the overlapping beacons
  mutate(matrix1 = map2(matrix1, i_s1, ~ .x[.y, ]),
         matrix2 = map2(matrix2, i_s2, ~ .x[.y, ]))
overlap_matrices

# A tibble: 32 × 6
   scanner_s1 scanner_s2 i_s1       i_s2       matrix1        matrix2       
        <int>      <int> <list>     <list>     <list>         <list>        
 1          0         11 <int [12]> <int [12]> <int [12 × 3]> <int [12 × 3]>
 2          0         12 <int [12]> <int [12]> <int [12 × 3]> <int [12 × 3]>
 3          0         24 <int [12]> <int [12]> <int [12 × 3]> <int [12 × 3]>
 4          1         10 <int [12]> <int [12]> <int [12 × 3]> <int [12 × 3]>
 5          1         11 <int [12]> <int [12]> <int [12 × 3]> <int [12 × 3]>
 6          1         19 <int [12]> <int [12]> <int [12 × 3]> <int [12 × 3]>
 7          2          7 <int [12]> <int [12]> <int [12 × 3]> <int [12 × 3]>
 8          3         12 <int [12]> <int [12]> <int [12 × 3]> <int [12 × 3]>
 9          3         20 <int [12]> <int [12]> <int [12 × 3]> <int [12 × 3]>
10          3         24 <int [12]> <int [12]> <int [12 × 3]> <int [12 × 3]>
# … with 22 more rows
…
    trans <- overlap_matrices_trans$trans[edges]
    
    reduce(trans, apply_matrix_trans, .init = scanner_matrices$matrix[[i]])
  }
)

Then the unique beacon locations:

map_dfr(res, as_tibble) %>% distinct(x, y, z)

# A tibble: 342 × 3
       x     y     z
   <dbl> <dbl> <dbl>
 1   712   493  -580
 2  -705  -746   944
 3  -468  -742   927
 4  -906  -760  -387
 5   523   612   505
 6  -973   425  -333
 7   361  -777  -655
 8  -172  -143    -8
 9   403  -606  -574
10  -655   761   677
# … with 332 more rows
…
