tdunn - Analyzing US baby names over the years
…
c(min(babynames$year), max(babynames$year))

[1] 1880 2017

The prop variable is presumably the proportion of babies with that name and sex in a given year:

babynames %>%
  group_by(sex, year) %>%
  mutate(n_total = sum(n)) %>%
  ungroup() %>%
  mutate(prop_manual = n / n_total) %>%
  select(prop, prop_manual)

# A tibble: 1,924,665 × 2
     prop prop_manual
    <dbl>       <dbl>
 1 0.0724      0.0776
 2 0.0267      0.0286
 3 0.0205      0.0220
 4 0.0199      0.0213
 5 0.0179      0.0192
 6 0.0162      0.0173
 7 0.0151      0.0162
 8 0.0145      0.0155
 9 0.0135      0.0145
10 0.0132      0.0142
# … with 1,924,655 more rows
# ℹ Use `print(n = ...)` to see more rows

Not quite – my manually calculated prop_manual is slightly higher. It may be due to un-documented names not being counted in the babynames data frame. The applicants data has the number of social security number applications. Is this the denominator?

babynames %>%
  left_join(tt$applicants, by = c("year", "sex")) %>%
  mutate(prop_manual = n / n_all) %>%
  select(prop, prop_manual)

# A tibble: 1,924,665 × 2
     prop prop_manual
    <dbl>       <dbl>
 1 0.0724      0.0724
 2 0.0267      0.0267
 3 0.0205      0.0205
 4 0.0199      0.0199
 5 0.0179      0.0179
 6 0.0162      0.0162
 7 0.0151      0.0151
 8 0.0145      0.0145
 9 0.0135      0.0135
10 0.0132      0.0132
# … with 1,924,655 more rows
# ℹ Use `print(n = ...)` to see more rows
…
