tdunn - Advent of Code 2021: Days 21-25
…
# Sample input
players <- tibble(pos1 = 4, score1 = 0, pos2 = 8, score2 = 0, n_univ = 1)
# After two turns
players %>% roll_dirac(player = 1) %>% roll_dirac(player = 2)

# A tibble: 49 × 5
    pos1 score1  pos2 score2 n_univ
   <dbl>  <dbl> <dbl>  <dbl>  <dbl>
 1     1      1     1      1      6
 2     1      1     2      2     18
 3     1      1     3      3     36
 4     1      1     4      4     42
 5     1      1     5      5     36
 6     1      1     6      6     18
 7     1      1     7      7      6
 8     2      2     1      1      3
 9     2      2     2      2      9
10     2      2     3      3     18
# … with 39 more rows
# ℹ Use `print(n = ...)` to see more rows
…
Execute the reboot steps. Afterward, considering only cubes in the region x=-50..50,y=-50..50,z=-50..50, how many cubes are on?

Parse the reboot steps:

reboot_steps <- tibble(x = day22) %>%
  extract(
    col = x, into = c("on", "xmin", "xmax", "ymin", "ymax", "zmin", "zmax"),
    regex = "(.*) x=(.*)\\.\\.(.*),y=(.*)\\.\\.(.*),z=(.*)\\.\\.(.*)",
    convert = TRUE
  ) %>%
  # Use a logical to indicate on/off
  mutate(on = on == "on", step_num = row_number())
reboot_steps

# A tibble: 420 × 8
   on     xmin  xmax  ymin  ymax  zmin  zmax step_num
   <lgl> <int> <int> <int> <int> <int> <int>    <int>
 1 TRUE    -45     0   -44     9   -39    10        1
 2 TRUE    -22    26   -21    25    -2    43        2
 3 TRUE    -17    35   -35    15   -27    25        3
 4 TRUE    -10    38   -46     6   -19    31        4
 5 TRUE    -19    28   -48     4   -47     4        5
 6 TRUE    -12    41   -45     7   -47     1        6
 7 TRUE    -31    15   -49    -1   -18    30        7
 8 TRUE    -15    32   -36    12   -12    33        8
 9 TRUE    -47     2   -35    12    -9    37        9
10 TRUE     -8    39   -41    10    -1    45       10
# … with 410 more rows
# ℹ Use `print(n = ...)` to see more rows
…
Then, after MONAD has finished running all of its instructions, it will indicate that the model number was valid by leaving a 0 in variable z. However, if the model number was invalid, it will leave some other non-zero value in z.

MONAD imposes additional, mysterious restrictions on model numbers, and legend says the last copy of the MONAD documentation was eaten by a tanuki. You’ll need to figure out what MONAD does some other way.

To enable as many submarine features as possible, find the largest valid fourteen-digit model number that contains no 0 digits. What is the largest model number accepted by MONAD?

These are some very confusing instructions. My TLDR is that the puzzle input is the code, through which I run many different 14 digit model numbers, and find the largest valid number (that contains no 0 digits). Parse the MONAD instruction list:

monad <- tibble(x = day24) %>%
  mutate(step_num = row_number()) %>%
  separate(x, into = c("operation", "var1", "var2"), sep = " ", fill = "right")
monad

# A tibble: 252 × 4
   operation var1  var2  step_num
   <chr>     <chr> <chr>    <int>
 1 inp       w     <NA>         1
 2 mul       x     0            2
 3 add       x     z            3
 4 mod       x     26           4
 5 div       z     1            5
 6 add       x     10           6
 7 eql       x     w            7
 8 eql       x     0            8
 9 mul       y     0            9
10 add       y     25          10
# … with 242 more rows
# ℹ Use `print(n = ...)` to see more rows
…
