tdunn - Advent of Code 2021: Days 11-15
…
How many paths through this cave system are there that visit small caves at most once?

First, put together a list of all the cave connections:

cave_connections <- tibble(paths = day12) %>%
  separate(paths, into = c("cave1", "cave2"), "-") 
cave_connections <- cave_connections %>%
  # By adding the reverse connections, we have all bi-directional paths
  bind_rows(cave_connections %>% rename(cave1 = cave2, cave2 = cave1)) %>%
  # Paths can't end with start, or start with end
  filter(cave1 != "end", cave2 != "start") %>%
  arrange(cave1)
cave_connections

# A tibble: 42 × 2
   cave1 cave2
   <chr> <chr>
 1 AV    mh   
 2 AV    gy   
 3 AV    cg   
 4 AV    rf   
 5 cg    AV   
 6 cg    gy   
 7 cg    RL   
 8 dm    rf   
 9 dm    end  
10 dm    wz   
# … with 32 more rows
# ℹ Use `print(n = ...)` to see more rows
…
  if (all_equal(prev_paths, cave_paths) == TRUE) break 
}
toc()

1.02 sec elapsed

3421 unique paths were identified:

cave_paths %>%
  mutate(path = str_c(c(start_cave, path), collapse = ",")) %>%
  distinct(path)

# A tibble: 3,421 × 1
# Rowwise: 
   path                                   
   <chr>                                  
 1 start,cg,AV,mh,AV,gy,RL,rf,RL,wz,dm,end
 2 start,cg,AV,mh,AV,gy,RL,rf,RL,wz,end   
 3 start,cg,AV,mh,AV,gy,RL,rf,wz,dm,end   
 4 start,cg,AV,mh,AV,gy,RL,rf,wz,end      
 5 start,cg,AV,mh,AV,gy,RL,rf,dm,end      
 6 start,cg,AV,mh,AV,gy,RL,rf,dm,wz,end   
 7 start,cg,AV,mh,AV,gy,RL,wz,RL,rf,dm,end
 8 start,cg,AV,mh,AV,gy,RL,wz,dm,end      
 9 start,cg,AV,mh,AV,gy,RL,wz,rf,dm,end   
10 start,cg,AV,mh,AV,gy,RL,wz,end         
# … with 3,411 more rows
# ℹ Use `print(n = ...)` to see more rows
…
128.87 sec elapsed

84870 unique paths were identified:

cave_paths %>%
  mutate(path = str_c(c(start_cave, path), collapse = ",")) %>%
  distinct(path)

# A tibble: 84,870 × 1
# Rowwise: 
   path                                         
   <chr>                                        
 1 start,cg,AV,mh,AV,mh,AV,gy,RL,rf,RL,wz,dm,end
 2 start,cg,AV,mh,AV,mh,AV,gy,RL,rf,RL,wz,end   
 3 start,cg,AV,mh,AV,mh,AV,gy,RL,rf,wz,dm,end   
 4 start,cg,AV,mh,AV,mh,AV,gy,RL,rf,wz,end      
 5 start,cg,AV,mh,AV,mh,AV,gy,RL,rf,dm,end      
 6 start,cg,AV,mh,AV,mh,AV,gy,RL,rf,dm,wz,end   
 7 start,cg,AV,mh,AV,mh,AV,gy,RL,wz,RL,rf,dm,end
 8 start,cg,AV,mh,AV,mh,AV,gy,RL,wz,dm,end      
 9 start,cg,AV,mh,AV,mh,AV,gy,RL,wz,rf,dm,end   
10 start,cg,AV,mh,AV,mh,AV,gy,RL,wz,end         
# … with 84,860 more rows
# ℹ Use `print(n = ...)` to see more rows
…
Apply 40 steps of pair insertion to the polymer template and find the most and least common elements in the result. What do you get if you take the quantity of the most common element and subtract the quantity of the least common element?

I probably should have seen this coming. The polymer from part 1 consists of 19457 elements, and will continue to grow exponentially and take too long to reach 40 steps. Similar to the lanternfish puzzle from day 6, I will need to instead find a way to count unique inputs (pairs of the polymer chain), then count their unique outputs at each step.

Consider each pair KK, FO, PP, etc. Each pair results in two new pairs from the same list after inserting a letter in between. For example, FO becomes FBO which consists of the pairs FB and BO. For each unique pair, compile the resulting pairs after insertion:

pair_transitions <-
  tibble(pair = pairs, element = insertions, insertion3 = insertions3) %>%
  mutate(
    new_pairs = map(insertion3, ~str_sub(.x, start = 1:2, end = 2:3))
  )
pair_transitions %>%
  mutate(new_pairs = map_chr(new_pairs, str_c, collapse = ", "))

# A tibble: 100 × 4
   pair  element insertion3 new_pairs
   <chr> <chr>   <chr>      <chr>    
 1 KK    S       KSK        KS, SK   
 2 FO    B       FBO        FB, BO   
 3 PP    O       POP        PO, OP   
 4 HN    S       HSN        HS, SN   
 5 CN    H       CHN        CH, HN   
 6 VH    P       VPH        VP, PH   
 7 BK    B       BBK        BB, BK   
 8 VC    N       VNC        VN, NC   
 9 CB    H       CHB        CH, HB   
10 OC    K       OKC        OK, KC   
# … with 90 more rows
# ℹ Use `print(n = ...)` to see more rows
…
