tdunn - TidyTuesday 2020 Week 45
…
Are there duplicate names?

ikea %>%
  count(name, sort = T)

# A tibble: 607 × 2
   name        n
   <chr>   <int>
 1 BESTÅ     173
 2 PAX       111
 3 GRÖNLID    83
 4 BEKANT     74
 5 TROFAST    74
 6 IVAR       69
 7 VIMLE      63
 8 EKET       61
 9 PLATSA     57
10 LIDHULT    52
# … with 597 more rows
# ℹ Use `print(n = ...)` to see more rows
…
For the remaining text in short_description, we might be able to text mine some useful information to better categorize items. For instance, consider the category = “Chairs”:

ikea_chairs <- ikea %>% filter(category == "Chairs")
ikea_chairs %>%
  select(name, price, short_description) %>%
  paged_table()

Most of these are just single chairs or stools. But others are a table and multiple chairs:

ikea_chairs %>%
  filter(str_detect(short_description, "\\d+")) %>%
  select(price, short_description)

# A tibble: 156 × 2
   price short_description                 
   <dbl> <chr>                             
 1   179 Table and 2 chairs                
 2   359 Table and 4 chairs                
 3   549 Table and 4 chairs                
 4   495 Storage bench w towel rail/4 hooks
 5   589 Table and 2 chairs                
 6   285 Table and 4 chairs                
 7   145 Stepladder, 3 steps               
 8   289 Table and 2 chairs                
 9   579 Table and 4 chairs                
10   889 Table and 2 chairs                
# … with 146 more rows
# ℹ Use `print(n = ...)` to see more rows
…
      # If not multiple stools
      is.na(stools),
      # There is 0 or 1 stools
      as.numeric(str_detect(short_description,
                            regex("stool", ignore_case = TRUE))), stools
    ),
    # Just look for 1 or 0 tables
    tables = as.integer(str_detect(short_description,
                                   regex("table", ignore_case = TRUE)))
  )
ikea %>%
  filter(chairs > 0 | stools > 0 | tables > 0) %>%
  count(short_description, chairs, stools, tables, sort = T)

# A tibble: 185 × 5
   short_description          chairs stools tables     n
   <chr>                       <dbl>  <dbl>  <int> <int>
 1 Table and 4 chairs              4      0      1   166
 2 Table                           0      0      1   132
 3 Table and 6 chairs              6      0      1    78
 4 Chair                           1      0      0    59
 5 Table and 2 chairs              2      0      1    34
 6 Armchair                        1      0      0    30
 7 Bar stool with backrest         0      1      0    25
 8 Coffee table                    0      0      1    25
 9 Table top                       0      0      1    22
10 Bar table and 2 bar stools      0      2      1    20
# … with 175 more rows
# ℹ Use `print(n = ...)` to see more rows
…
ikea_sofas %>%
  count(sofa_seats, short_description, sort = T) %>%
  filter(!is.na(sofa_seats))

# A tibble: 47 × 3
   sofa_seats short_description         n
   <chr>      <chr>                 <int>
 1 3-seat     3-seat sofa              30
 2 2-seat     2-seat sofa              18
 3 4-seat     4-seat sofa              16
 4 3-seat     3-seat sofa-bed          12
 5 4-seat     Corner sofa, 4-seat      12
 6 5-seat     Corner sofa, 5-seat      12
 7 1-seat     Corner section            7
 8 3-seat     3-seat section            7
 9 1-seat     Chaise longue section     6
10 2-seat     2-seat section            6
# … with 37 more rows
# ℹ Use `print(n = ...)` to see more rows
…
